{"data": {"workouts": [{"ascent": 29.4,
                        "ave_speed": 15.39,
                        "bounds": [47.20,
                                   -1.5,
                                   47.21,
                                   -1.57],
                        "creation_date": "Sun, 14 Jan 2024 21:37:06 GMT",
                        "descent": 26.2,
                        "distance": 5.306,
                        "duration": "0:33:57",
                        "id": "ies6ohMohnaid2ohduacie5eibeiLie",
                        "map": "yup6Cei5jeiC9xaerii9geih9vooT5i",
                        "max_alt": 20.4,
                        "max_speed": 20.57,
                        "min_alt": 10.4,
                        "modification_date": "null",
                        "moving": "0:20:41",
                        "next_workout": "nahqui7auPhaeth7puph0quie0Hanah",
                        "notes": "",
                        "pauses": "0:13:15",
                        "previous_workout": "ve0eewieFevip3xeejaejagiephae8n",
                        "records": [],
                        "segments": [{"ascent": 29.4,
                                      "ave_speed": 15.39,
                                      "descent": 26.2,
                                      "distance": 5.306,
                                      "duration": "0:33:57",
                                      "max_alt": 20.4,
                                      "max_speed": 20.57,
                                      "min_alt": 10.4,
                                      "moving": "0:20:41",
                                      "pauses": "0:13:15",
                                      "segment_id": 0,
                                      "workout_id": "ies6ohMohnaid2ohduacie5eibeiLie"}],
                        "sport_id": 1,
                        "title": "Cyclisme sur route",
                        "user": "Dryusdan",
                        "weather_end": "null",
                        "weather_start": "null",
                        "with_gpx": true,
                        "workout_date": "Sun, 14 Jan 2024 13:09:59 GMT"},
                       {"ascent": 29.4,
                        "ave_speed": 15.39,
                        "bounds": [47.20,
                                   -1.5,
                                   47.21,
                                   -1.57],
                        "creation_date": "Sun, 14 Jan 2024 21:23:00 GMT",
                        "descent": 26.2,
                        "distance": 5.306,
                        "duration": "0:33:57",
                        "id": "eechieshocifah4ohquaiphiThiF9io",
                        "map": "uKah1da7cheBee1ap9no7laivee7Ait",
                        "max_alt": 20.4,
                        "max_speed": 20.57,
                        "min_alt": 10.4,
                        "modification_date": "null",
                        "moving": "0:20:41",
                        "next_workout": "aiTece5kee0aibeeWaiphais0hupha9",
                        "notes": "",
                        "pauses": "0:13:15",
                        "previous_workout": "Iehu5aif0direi3pae0ohliFaijoodi",
                        "records": [],
                        "segments": [{"ascent": 29.4,
                                      "ave_speed": 15.39,
                                      "descent": 26.2,
                                      "distance": 5.306,
                                      "duration": "0:33:57",
                                      "max_alt": 20.4,
                                      "max_speed": 20.57,
                                      "min_alt": 10.4,
                                      "moving": "0:20:41",
                                      "pauses": "0:13:15",
                                      "segment_id": 0,
                                      "workout_id": "eechieshocifah4ohquaiphiThiF9io"}],
                        "sport_id": 1,
                        "title": "Cyclisme sur route",
                        "user": "Dryusdan",
                        "weather_end": "null",
                        "weather_start": "null",
                        "with_gpx": true,
                        "workout_date": "Sun, 14 Jan 2024 13:09:59 GMT"}]},
 "pagination": {"has_next": true,
                "has_prev": false,
                "page": 1,
                "pages": 660,
                "total": 1320},
 "status": "success"}
